{
    "geneSearch": [
        {
            "attachTo": "#searchMainArea",
            "title": "Step 2: Enter a gene",
            "description": "Start typing in here and after 4 characters are entered a dropdown appears with genes matching the search.  Use the mouse or arrow keys to select a gene, or just keep typing and press enter or click the search button to the right.",
            "position": 11,
            "overlay": true,
            "highlight": true,
            "xButton": true,
            "showNext": false
        }
    ]
}
